[
  {
    "key": "evlo",
    "title": "Mr.",
    "logo": "http://a.espncdn.com/combiner/i?img=/i/headshots/mlb/players/full/28639.png&w=350&h=254",
    "firstName": "Evan",
    "lastName": "Longoria",
    "dateOfBirth": "10/7/85",
    "gender": "Male",
    "address": {
      "street": "177 Rays Way",
      "city": "St. Petersburg",
      "state": "FL",
      "zip": "33710"
    },
    "occupation": "Third Baseman",
    "phones": {
      "home": "727-777-7777",
      "cell": "727-777-7777"
    },
    "email": "longo@rays.com"
  },
  {
    "key": "jawi",
    "title": "Mr.",
    "logo": "http://a.espncdn.com/combiner/i?img=/i/headshots/nfl/players/full/2969939.png&w=350&h=254",
    "firstName": "Jameis",
    "lastName": "Winston",
    "dateOfBirth": "January 6, 1994 (age 23)",
    "gender": "Male",
    "address": {
      "street": "177 Bucs Way",
      "city": "Tampa",
      "state": "FL",
      "zip": "33801"
    },
    "occupation": "Quarterback",
    "phones": {
      "home": "727-888-8888",
      "cell": "727-888-8888"
    },
    "email": "winston@bucs.com"
  },
  {
    "key": "char",
    "title": "Mr.",
    "logo": "http://a.espncdn.com/combiner/i?img=/i/headshots/mlb/players/full/31003.png&w=350&h=254",
    "firstName": "Chris",
    "lastName": "Archer",
    "dateOfBirth": "September 26, 1988 (age 28)",
    "gender": "Male",
    "address": {
      "street": "177 Rays Way",
      "city": "St. Petersburg",
      "state": "FL",
      "zip": "33710"
    },
    "occupation": "Starting Pitcher",
    "phones": {
      "home": "727-777-7777",
      "cell": "727-777-7777"
    },
    "email": "archer@rays.com"
  },
  {
    "key": "gemc",
    "title": "Mr.",
    "logo": "http://a.espncdn.com/combiner/i?img=/i/headshots/nfl/players/full/13240.png&w=350&h=254",
    "firstName": "Gerald",
    "lastName": "McCoy",
    "dateOfBirth": "February 25, 1988 (age 29)",
    "gender": "Male",
    "address": {
      "street": "177 Bucs Way",
      "city": "Tampa",
      "state": "FL",
      "zip": "33801"
    },
    "occupation": "Defensive Tackle",
    "phones": {
      "home": "727-888-8888",
      "cell": "727-888-8888"
    },
    "email": "mccoy@bucs.com"
  },
  {
    "key": "alco",
    "title": "Mr.",
    "logo": "http://a.espncdn.com/combiner/i?img=/i/headshots/mlb/players/full/31086.png&w=350&h=254",
    "firstName": "Alex",
    "lastName": "Cobb",
    "dateOfBirth": "October 7, 1987 (age 29)",
    "gender": "Male",
    "address": {
      "street": "177 Rays Way",
      "city": "St. Petersburg",
      "state": "FL",
      "zip": "33710"
    },
    "occupation": "Starting Pitcher",
    "phones": {
      "home": "727-777-7777",
      "cell": "727-777-7777"
    },
    "email": "cobb@rays.com"
  },
  {
    "key": "miev",
    "title": "Mr.",
    "logo": "http://a.espncdn.com/combiner/i?img=/i/headshots/nfl/players/full/16737.png&w=350&h=254",
    "firstName": "Mike",
    "lastName": "Evans",
    "dateOfBirth": "August 21, 1993 (age 23)",
    "gender": "Male",
    "address": {
      "street": "177 Bucs Way",
      "city": "Tampa",
      "state": "FL",
      "zip": "33801"
    },
    "occupation": "Wide Receiver",
    "phones": {
      "home": "727-888-8888",
      "cell": "727-888-8888"
    },
    "email": "evans@bucs.com"
  },
  {
    "key": "codi",
    "title": "Mr.",
    "logo": "http://a.espncdn.com/combiner/i?img=/i/headshots/mlb/players/full/31684.png&w=350&h=254",
    "firstName": "Corey",
    "lastName": "Dickerson",
    "dateOfBirth": "May 22, 1989 (age 28)",
    "gender": "Male",
    "address": {
      "street": "177 Rays Way",
      "city": "St. Petersburg",
      "state": "FL",
      "zip": "33710"
    },
    "occupation": "Designated Hitter",
    "phones": {
      "home": "727-777-7777",
      "cell": "727-777-7777"
    },
    "email": "dickerson@rays.com"
  },
  {
    "key": "lada",
    "title": "Mr.",
    "logo": "http://a.espncdn.com/combiner/i?img=/i/headshots/nfl/players/full/14985.png&w=350&h=254",
    "firstName": "Lavonte",
    "lastName": "David",
    "dateOfBirth": "January 23, 1990 (age 27)",
    "gender": "Male",
    "address": {
      "street": "177 Bucs Way",
      "city": "Tampa",
      "state": "FL",
      "zip": "33801"
    },
    "occupation": "Linebacker",
    "phones": {
      "home": "727-888-8888",
      "cell": "727-888-8888"
    },
    "email": "david@bucs.com"
  },
  {
    "key": "wira",
    "title": "Mr.",
    "logo": "http://a.espncdn.com/combiner/i?img=/i/headshots/mlb/players/full/30173.png&w=350&h=254",
    "firstName": "Wilson",
    "lastName": "Ramos",
    "dateOfBirth": "August 10, 1987 (age 29)",
    "gender": "Male",
    "address": {
      "street": "177 Rays Way",
      "city": "St. Petersburg",
      "state": "FL",
      "zip": "33710"
    },
    "occupation": "Catcher",
    "phones": {
      "home": "727-777-7777",
      "cell": "727-777-7777"
    },
    "email": "ramos@rays.com"
  },
  {
    "key": "deja",
    "title": "Mr.",
    "logo": "http://a.espncdn.com/combiner/i?img=/i/headshots/nfl/players/full/11283.png&w=350&h=254",
    "firstName": "DeSean",
    "lastName": "Jackson",
    "dateOfBirth": "December 1, 1986 (age 30)",
    "gender": "Male",
    "address": {
      "street": "177 Bucs Way",
      "city": "Tampa",
      "state": "FL",
      "zip": "33801"
    },
    "occupation": "Wide Receiver",
    "phones": {
      "home": "727-888-8888",
      "cell": "727-888-8888"
    },
    "email": "jackson@bucs.com"
  }
]
